{
    "Frame_no": 1,
    "judgement": {
        "object": {
            "metainfo": {
                "image": {
                    "height": 593,
                    "width": 866,
                    "url": "https://s3.us-east-2.amazonaws.com/insignia-client/img10.jpg"
                },
                "annotation": {
                    "enabled_count": 8
                }
            },
            "annotateddata": [
                {
                    "id": "_1dcf5g56e",
                    "object_type": "polygon",
                    "class": "manmade-other",
                    "taxonomy_attribute": [],
                    "drawable_attribute": [],
                    "coordinates": [
                        {
                            "x": 359.14117431640625,
                            "y": 162.57968139648438
                        },
                        {
                            "x": 341.1508021390374,
                            "y": 231.20962566844918
                        },
                        {
                            "x": 396.45454545454544,
                            "y": 249.2
                        },
                        {
                            "x": 477.7443850267379,
                            "y": 167.91016042780748
                        },
                        {
                            "x": 440.4310160427807,
                            "y": 87.28663101604278
                        }
                    ],
                    "deleted": false,
                    "discarded": false,
                    "children": [],
                    "parent": "",
                    "note": "BMW",
                    "_updated_on": 1547044377748
                },
                {
                    "id": "_1f5lp4hfr",
                    "object_type": "polygon",
                    "class": "background",
                    "taxonomy_attribute": [],
                    "drawable_attribute": [],
                    "coordinates": [
                        {
                            "x": 375.13262939453125,
                            "y": 189.8983917236328
                        },
                        {
                            "x": 280.51657754010694,
                            "y": 295.17540106951867
                        },
                        {
                            "x": 407.78181818181815,
                            "y": 337.15294117647056
                        },
                        {
                            "x": 478.41069518716574,
                            "y": 290.51122994652405
                        },
                        {
                            "x": 487.07272727272726,
                            "y": 223.8802139037433
                        }
                    ],
                    "deleted": true,
                    "discarded": false,
                    "children": [],
                    "parent": "",
                    "note": "Face",
                    "_updated_on": 1546418455832
                },
                {
                    "id": "_2198zvas8",
                    "object_type": "polygon",
                    "class": "scrub",
                    "taxonomy_attribute": [],
                    "drawable_attribute": [],
                    "coordinates": [
                        {
                            "x": 384.4609680175781,
                            "y": 340.4844970703125
                        },
                        {
                            "x": 350.4791443850267,
                            "y": 404.45026737967913
                        },
                        {
                            "x": 428.43743315508016,
                            "y": 467.08342245989303
                        },
                        {
                            "x": 483.0748663101604,
                            "y": 401.11871657754006
                        },
                        {
                            "x": 485.7401069518716,
                            "y": 337.8192513368984
                        }
                    ],
                    "deleted": true,
                    "discarded": false,
                    "children": [],
                    "parent": "",
                    "note": "test",
                    "_updated_on": 1547018775340
                },
                {
                    "id": "_2xtokvlhj",
                    "object_type": "polygon",
                    "class": "manmade-other",
                    "taxonomy_attribute": [],
                    "drawable_attribute": [],
                    "coordinates": [
                        {
                            "x": 485.7401123046875,
                            "y": 97.28128051757812
                        },
                        {
                            "x": 529.0502673796791,
                            "y": 112.60641711229945
                        },
                        {
                            "x": 523.7197860962566,
                            "y": 137.92620320855613
                        },
                        {
                            "x": 470.41497326203205,
                            "y": 177.9048128342246
                        },
                        {
                            "x": 445.09518716577537,
                            "y": 141.92406417112298
                        },
                        {
                            "x": 445.7614973262032,
                            "y": 118.60320855614972
                        }
                    ],
                    "deleted": true,
                    "discarded": false,
                    "children": [],
                    "parent": "",
                    "note": "test",
                    "_updated_on": 1546864599698
                },
                {
                    "id": "_4qo8gaue7",
                    "object_type": "polygon",
                    "class": "scrub",
                    "taxonomy_attribute": [],
                    "drawable_attribute": [],
                    "coordinates": [
                        {
                            "x": 650.3187255859375,
                            "y": 193.89625549316406
                        },
                        {
                            "x": 612.339037433155,
                            "y": 254.53048128342243
                        },
                        {
                            "x": 706.2887700534759,
                            "y": 309.83422459893046
                        },
                        {
                            "x": 756.9283422459893,
                            "y": 259.8609625668449
                        },
                        {
                            "x": 758.2609625668449,
                            "y": 200.55935828877003
                        }
                    ],
                    "deleted": true,
                    "discarded": false,
                    "children": [],
                    "parent": "",
                    "note": "test",
                    "_updated_on": 1546864556745
                },
                {
                    "id": "_6fme97txj",
                    "object_type": "polygon",
                    "class": "manmade-other",
                    "taxonomy_attribute": [],
                    "drawable_attribute": [],
                    "coordinates": [
                        {
                            "x": 487.7390441894531,
                            "y": 129.26417541503906
                        },
                        {
                            "x": 539.0449197860962,
                            "y": 94.61604278074866
                        },
                        {
                            "x": 521.7208556149732,
                            "y": 44.6427807486631
                        },
                        {
                            "x": 465.7508021390374,
                            "y": 42.643850267379676
                        },
                        {
                            "x": 470.41497326203205,
                            "y": 89.2855614973262
                        }
                    ],
                    "deleted": false,
                    "discarded": false,
                    "children": [],
                    "parent": "",
                    "note": "Face"
                },
                {
                    "id": "_74gyl45bz",
                    "object_type": "polygon",
                    "class": "other-natural",
                    "taxonomy_attribute": [],
                    "drawable_attribute": [],
                    "coordinates": [
                        {
                            "x": 242.53689575195312,
                            "y": 337.1529541015625
                        },
                        {
                            "x": 124.6,
                            "y": 437.7657754010695
                        },
                        {
                            "x": 214.551871657754,
                            "y": 495.7347593582887
                        },
                        {
                            "x": 299.83957219251334,
                            "y": 463.0855614973262
                        },
                        {
                            "x": 325.82566844919785,
                            "y": 391.124064171123
                        }
                    ],
                    "deleted": true,
                    "discarded": false,
                    "children": [],
                    "parent": "",
                    "note": "test",
                    "_updated_on": 1547021332603
                },
                {
                    "id": "_8vtso81s5",
                    "object_type": "polygon",
                    "class": "background",
                    "taxonomy_attribute": [],
                    "drawable_attribute": [],
                    "coordinates": [
                        {
                            "x": 390.457763671875,
                            "y": 376.4652404785156
                        },
                        {
                            "x": 365.1379679144385,
                            "y": 435.7668449197861
                        },
                        {
                            "x": 442.4299465240641,
                            "y": 491.7368983957219
                        },
                        {
                            "x": 481.74224598930476,
                            "y": 445.7614973262032
                        },
                        {
                            "x": 477.07807486631015,
                            "y": 398.45347593582886
                        },
                        {
                            "x": 464.4181818181818,
                            "y": 364.47165775401066
                        }
                    ],
                    "deleted": true,
                    "discarded": false,
                    "children": [],
                    "parent": "",
                    "note": "test",
                    "_updated_on": 1547021327455
                },
                {
                    "id": "_b35ps49u5",
                    "object_type": "polygon",
                    "class": "scrub",
                    "taxonomy_attribute": [],
                    "drawable_attribute": [],
                    "coordinates": [
                        {
                            "x": 134.5946502685547,
                            "y": 97.94759368896484
                        },
                        {
                            "x": 74.62673796791444,
                            "y": 170.5754010695187
                        },
                        {
                            "x": 181.90267379679142,
                            "y": 235.20748663101602
                        },
                        {
                            "x": 264.52513368983955,
                            "y": 182.56898395721925
                        },
                        {
                            "x": 268.5229946524064,
                            "y": 126.59893048128342
                        }
                    ],
                    "deleted": true,
                    "discarded": false,
                    "children": [],
                    "parent": "",
                    "note": "Face",
                    "_updated_on": 1547018776614
                },
                {
                    "id": "_buw27t862",
                    "object_type": "polygon",
                    "class": "sky",
                    "taxonomy_attribute": [],
                    "drawable_attribute": [],
                    "coordinates": [
                        {
                            "x": 439.76470947265625,
                            "y": 197.8941192626953
                        },
                        {
                            "x": 338.48556149732616,
                            "y": 317.16363636363633
                        },
                        {
                            "x": 453.09090909090907,
                            "y": 367.1368983957219
                        },
                        {
                            "x": 555.0363636363636,
                            "y": 318.496256684492
                        },
                        {
                            "x": 558.3679144385027,
                            "y": 283.1818181818182
                        }
                    ],
                    "deleted": true,
                    "discarded": false,
                    "children": [],
                    "parent": "",
                    "note": "Face",
                    "_updated_on": 1546418488589
                },
                {
                    "id": "_cgpdnxoky",
                    "object_type": "polygon",
                    "class": "other-natural",
                    "taxonomy_attribute": [],
                    "drawable_attribute": [],
                    "coordinates": [
                        {
                            "x": 399.1197814941406,
                            "y": 527.7176513671875
                        },
                        {
                            "x": 530.3828877005348,
                            "y": 538.3786096256684
                        },
                        {
                            "x": 524.3860962566845,
                            "y": 452.42459893048124
                        },
                        {
                            "x": 461.75294117647053,
                            "y": 437.7657754010695
                        },
                        {
                            "x": 374.4663101604278,
                            "y": 437.0994652406417
                        }
                    ],
                    "deleted": false,
                    "discarded": false,
                    "children": [],
                    "parent": "",
                    "note": "HUMAN",
                    "_updated_on": 1547047946081
                },
                {
                    "id": "_fo0ho37w8",
                    "object_type": "polygon",
                    "class": "trees",
                    "taxonomy_attribute": [],
                    "drawable_attribute": [],
                    "coordinates": [
                        {
                            "x": 299.8395690917969,
                            "y": 187.8994598388672
                        },
                        {
                            "x": 273.85347593582884,
                            "y": 257.86203208556145
                        },
                        {
                            "x": 389.1251336898396,
                            "y": 331.1561497326203
                        },
                        {
                            "x": 429.103743315508,
                            "y": 270.5219251336898
                        },
                        {
                            "x": 690,
                            "y": 115
                        }
                    ],
                    "deleted": true,
                    "discarded": false,
                    "children": [],
                    "parent": "",
                    "note": "Face",
                    "_updated_on": 1547021331036
                },
                {
                    "id": "_fwulqf1iy",
                    "object_type": "polygon",
                    "class": "mountains",
                    "taxonomy_attribute": [],
                    "drawable_attribute": [],
                    "coordinates": [
                        {
                            "x": 622.3336791992188,
                            "y": 185.90052795410156
                        },
                        {
                            "x": 653.6502673796791,
                            "y": 250.53262032085559
                        },
                        {
                            "x": 722.2802139037433,
                            "y": 203.89090909090908
                        },
                        {
                            "x": 690.2973262032085,
                            "y": 127.26524064171122
                        },
                        {
                            "x": 663.6449197860962,
                            "y": 112.60641711229945
                        }
                    ],
                    "deleted": false,
                    "discarded": false,
                    "children": [],
                    "parent": "",
                    "note": "Face12"
                },
                {
                    "id": "_gj37hkltl",
                    "object_type": "polygon",
                    "class": "mountains",
                    "taxonomy_attribute": [],
                    "drawable_attribute": [],
                    "coordinates": [
                        {
                            "x": 377.7978515625,
                            "y": 200.55935668945312
                        },
                        {
                            "x": 277.1850267379679,
                            "y": 268.5229946524064
                        },
                        {
                            "x": 369.13582887700534,
                            "y": 372.46737967914436
                        },
                        {
                            "x": 496.40106951871655,
                            "y": 323.1604278074866
                        },
                        {
                            "x": 496.40106951871655,
                            "y": 232.5422459893048
                        },
                        {
                            "x": 467.7497326203208,
                            "y": 189.8983957219251
                        }
                    ],
                    "deleted": true,
                    "discarded": false,
                    "children": [],
                    "parent": "",
                    "note": "Face",
                    "_updated_on": 1546417790612
                },
                {
                    "id": "_i7xqfpwxi",
                    "object_type": "polygon",
                    "class": "manmade-other",
                    "taxonomy_attribute": [],
                    "drawable_attribute": [],
                    "coordinates": [
                        {
                            "x": 690.963623046875,
                            "y": 297.17431640625
                        },
                        {
                            "x": 664.311229946524,
                            "y": 366.4705882352941
                        },
                        {
                            "x": 744.268449197861,
                            "y": 429.7700534759358
                        },
                        {
                            "x": 775.5850267379678,
                            "y": 376.4652406417112
                        },
                        {
                            "x": 776.9176470588235,
                            "y": 305.8363636363636
                        }
                    ],
                    "deleted": false,
                    "discarded": false,
                    "children": [],
                    "parent": "",
                    "note": "Face",
                    "_updated_on": 1547047935066
                },
                {
                    "id": "_mj1ogdaiz",
                    "object_type": "polygon",
                    "class": "mountains",
                    "taxonomy_attribute": [],
                    "drawable_attribute": [],
                    "coordinates": [
                        {
                            "x": 529.05029296875,
                            "y": 149.25347900390625
                        },
                        {
                            "x": 342.483422459893,
                            "y": 287.17967914438503
                        },
                        {
                            "x": 417.77647058823527,
                            "y": 365.1379679144385
                        },
                        {
                            "x": 517.7229946524063,
                            "y": 351.81176470588235
                        },
                        {
                            "x": 551.0385026737968,
                            "y": 304.503743315508
                        }
                    ],
                    "deleted": true,
                    "discarded": false,
                    "children": [],
                    "parent": "",
                    "note": "Face",
                    "_updated_on": 1546416922503
                },
                {
                    "id": "_r2qkcoaxk",
                    "object_type": "polygon",
                    "class": "manmade-other",
                    "taxonomy_attribute": [],
                    "drawable_attribute": [],
                    "coordinates": [
                        {
                            "x": 619.66845703125,
                            "y": 279.1839599609375
                        },
                        {
                            "x": 741.6032085561496,
                            "y": 317.16363636363633
                        },
                        {
                            "x": 742.9358288770053,
                            "y": 213.8855614973262
                        },
                        {
                            "x": 721.6139037433154,
                            "y": 193.89625668449196
                        },
                        {
                            "x": 616.3368983957218,
                            "y": 196.56149732620318
                        }
                    ],
                    "deleted": true,
                    "discarded": false,
                    "children": [],
                    "parent": "",
                    "note": "Face",
                    "_updated_on": 1547021334048
                },
                {
                    "id": "_r7p98j9g8",
                    "object_type": "polygon",
                    "class": "trees",
                    "taxonomy_attribute": [],
                    "drawable_attribute": [],
                    "coordinates": [
                        {
                            "x": 491.7369079589844,
                            "y": 360.4737854003906
                        },
                        {
                            "x": 569.6951871657753,
                            "y": 289.17860962566846
                        },
                        {
                            "x": 540.3775401069519,
                            "y": 234.54117647058823
                        },
                        {
                            "x": 463.0855614973262,
                            "y": 229.87700534759358
                        },
                        {
                            "x": 392.4566844919786,
                            "y": 290.51122994652405
                        }
                    ],
                    "deleted": false,
                    "discarded": false,
                    "children": [],
                    "parent": "",
                    "note": "",
                    "_updated_on": 1547021353184
                },
                {
                    "id": "_uh06jduiu",
                    "object_type": "polygon",
                    "class": "background",
                    "taxonomy_attribute": [],
                    "drawable_attribute": [],
                    "coordinates": [
                        {
                            "x": 556.3689575195312,
                            "y": 328.49090576171875
                        },
                        {
                            "x": 500.3989304812834,
                            "y": 400.4524064171123
                        },
                        {
                            "x": 593.0160427807486,
                            "y": 451.09197860962564
                        },
                        {
                            "x": 687.6320855614973,
                            "y": 355.1433155080214
                        }
                    ],
                    "deleted": true,
                    "discarded": false,
                    "children": [],
                    "parent": "",
                    "note": "BMW",
                    "_updated_on": 1547021328952
                },
                {
                    "id": "_vvx8jpou0",
                    "object_type": "polygon",
                    "class": "other-natural",
                    "taxonomy_attribute": [],
                    "drawable_attribute": [],
                    "coordinates": [
                        {
                            "x": 172.57432556152344,
                            "y": 237.2064208984375
                        },
                        {
                            "x": 236.54010695187165,
                            "y": 307.83529411764704
                        },
                        {
                            "x": 285.1807486631016,
                            "y": 253.19786096256684
                        },
                        {
                            "x": 264.52513368983955,
                            "y": 167.91016042780748
                        },
                        {
                            "x": 182.56898395721925,
                            "y": 129.93048128342244
                        }
                    ],
                    "deleted": false,
                    "discarded": false,
                    "children": [],
                    "parent": "",
                    "note": "",
                    "_updated_on": 1547044364114
                },
                {
                    "id": "_w3jsihlxa",
                    "object_type": "polygon",
                    "class": "manmade-other",
                    "taxonomy_attribute": [],
                    "drawable_attribute": [],
                    "coordinates": [
                        {
                            "x": 714.9508056640625,
                            "y": 168.57647705078125
                        },
                        {
                            "x": 771.587165775401,
                            "y": 142.5903743315508
                        },
                        {
                            "x": 761.5925133689839,
                            "y": 101.94545454545454
                        },
                        {
                            "x": 720.9475935828876,
                            "y": 80.62352941176471
                        },
                        {
                            "x": 657.648128342246,
                            "y": 107.94224598930481
                        },
                        {
                            "x": 688.2983957219251,
                            "y": 200.55935828877003
                        }
                    ],
                    "deleted": true,
                    "discarded": false,
                    "children": [],
                    "parent": "",
                    "note": "BMW",
                    "_updated_on": 1547021334983
                },
                {
                    "id": "_xshzjqr8u",
                    "object_type": "polygon",
                    "class": "background",
                    "taxonomy_attribute": [],
                    "drawable_attribute": [],
                    "coordinates": [
                        {
                            "x": 687.632080078125,
                            "y": 111.27379608154297
                        },
                        {
                            "x": 574.3593582887701,
                            "y": 235.20748663101602
                        },
                        {
                            "x": 645.6545454545454,
                            "y": 300.50588235294117
                        },
                        {
                            "x": 802.2374331550801,
                            "y": 270.5219251336898
                        },
                        {
                            "x": 780.2491978609626,
                            "y": 160.5807486631016
                        }
                    ],
                    "deleted": true,
                    "discarded": false,
                    "children": [],
                    "parent": "",
                    "note": "Face",
                    "_updated_on": 1546418488591
                },
                {
                    "id": "_z0h2jecpr",
                    "object_type": "polygon",
                    "class": "sky",
                    "taxonomy_attribute": [
                        [
                            "sex/type",
                            "Female"
                        ]
                    ],
                    "drawable_attribute": [],
                    "coordinates": [
                        {
                            "x": 611.0064086914062,
                            "y": 58.63529586791992
                        },
                        {
                            "x": 569.6951871657753,
                            "y": 128.59786096256684
                        },
                        {
                            "x": 609.6737967914438,
                            "y": 187.8994652406417
                        },
                        {
                            "x": 692.2962566844919,
                            "y": 128.59786096256684
                        },
                        {
                            "x": 688.9647058823529,
                            "y": 81.95614973262032
                        }
                    ],
                    "deleted": false,
                    "discarded": false,
                    "children": [],
                    "parent": "",
                    "note": "BMW"
                },
                {
                    "id": "_zicoylj7w",
                    "object_type": "polygon",
                    "class": "sky",
                    "taxonomy_attribute": [],
                    "drawable_attribute": [],
                    "coordinates": [
                        {
                            "x": 359.8074951171875,
                            "y": 217.8834228515625
                        },
                        {
                            "x": 311.8331550802139,
                            "y": 266.524064171123
                        },
                        {
                            "x": 347.8139037433155,
                            "y": 309.83422459893046
                        },
                        {
                            "x": 416.4438502673797,
                            "y": 299.83957219251334
                        },
                        {
                            "x": 441.0973262032085,
                            "y": 259.8609625668449
                        },
                        {
                            "x": 431.1026737967914,
                            "y": 236.54010695187165
                        }
                    ],
                    "deleted": true,
                    "discarded": false,
                    "children": [],
                    "parent": "",
                    "note": "BMW",
                    "_updated_on": 1546417353840
                }
            ],
            "comment": {
                "textComment": "test",
                "predefinedComment": [
                    [
                        "commentOptions",
                        "Image too Blurry"
                    ],
                    [
                        "imageLabel",
                        "1"
                    ],
                    [
                        "depth",
                        "3"
                    ]
                ],
                "updated_on": 1547130766850
            }
        }
    }
}